<?xml version="1.0" standalone="no"?>
<!DOCTYPE svg PUBLIC "-//W3C//DTD SVG 20010904//EN"
 "http://www.w3.org/TR/2001/REC-SVG-20010904/DTD/svg10.dtd">
<svg version="1.0" xmlns="http://www.w3.org/2000/svg"
 width="512.000000pt" height="512.000000pt" viewBox="0 0 512.000000 512.000000"
 preserveAspectRatio="xMidYMid meet">
<metadata>
Created by potrace 1.11, written by Peter Selinger 2001-2013
</metadata>
<g transform="translate(0.000000,512.000000) scale(0.100000,-0.100000)"
fill="#000000" stroke="none">
<path d="M2453 2645 c-541 -987 -984 -1799 -985 -1805 -3 -10 254 -160 273
-160 8 0 1974 3591 1974 3604 0 9 -252 154 -270 155 -6 1 -452 -807 -992
-1794z"/>
<path d="M735 3180 l-620 -620 622 -622 623 -623 115 115 115 115 -507 507
-508 508 508 508 507 507 -113 113 c-62 61 -115 112 -117 112 -3 0 -284 -279
-625 -620z"/>
<path d="M3642 3688 l-112 -113 507 -507 508 -508 -508 -508 -507 -507 115
-115 115 -115 623 623 622 622 -620 620 c-341 341 -622 620 -625 620 -3 0 -56
-51 -118 -112z"/>
</g>
</svg>
